{
    "KPlugin": {
        "Authors": [
            {
                "Email": "ivan.cukic@kde.org",
                "Name": "Ivan Cukic",
                "Name[ar]": "Ivan Cukic",
                "Name[az]": "Ivan Cukic",
                "Name[bg]": "Ivan Cukic",
                "Name[ca@valencia]": "Ivan Cukic",
                "Name[ca]": "Ivan Cukic",
                "Name[cs]": "Ivan Cukic",
                "Name[da]": "Ivan Cukic",
                "Name[de]": "Ivan Cukic",
                "Name[el]": "Ivan Cukic",
                "Name[en_GB]": "Ivan Cukic",
                "Name[es]": "Ivan Cukic",
                "Name[et]": "Ivan Cukic",
                "Name[eu]": "Ivan Cukic",
                "Name[fi]": "Ivan Cukic",
                "Name[fr]": "Ivan Cukic",
                "Name[gl]": "Ivan Cukic",
                "Name[hi]": "इवान चुकिच",
                "Name[hu]": "Ivan Cukic",
                "Name[ia]": "Ivan Cukic",
                "Name[id]": "Ivan Cukic",
                "Name[it]": "Ivan Cukic",
                "Name[ka]": "Ivan Cukic",
                "Name[ko]": "Ivan Cukic",
                "Name[lt]": "Ivan Cukic",
                "Name[nl]": "Ivan Cukic",
                "Name[nn]": "Ivan Čukić",
                "Name[pl]": "Ivan Cukic",
                "Name[pt]": "Ivan Cukic",
                "Name[pt_BR]": "Ivan Cukic",
                "Name[ro]": "Ivan Cukic",
                "Name[ru]": "Ivan Čukić",
                "Name[sk]": "Ivan Cukic",
                "Name[sl]": "Ivan Cukic",
                "Name[sr@ijekavian]": "Иван Чукић",
                "Name[sr@ijekavianlatin]": "Ivan Čukić",
                "Name[sr@latin]": "Ivan Čukić",
                "Name[sr]": "Иван Чукић",
                "Name[sv]": "Ivan Cukic",
                "Name[tr]": "Ivan Cukic",
                "Name[uk]": "Ivan Cukic",
                "Name[vi]": "Ivan Cukic",
                "Name[x-test]": "xxIvan Cukicxx",
                "Name[zh_CN]": "Ivan Cukic",
                "Name[zh_TW]": "Ivan Cukic"
            }
        ],
        "Category": "",
        "Description": "When switching to an activity, opens the virtual desktop last used with that activity",
        "Description[ar]": "عند التبديل إلى نشاط ما، يفتح سطح المكتب الافتراضي المستخدم آخر مرة مع هذا النشاط",
        "Description[az]": "Bu fəaliyyətə keçid zamanı onda ən son aktiv olan iş masasını açır",
        "Description[bg]": "Когато превключвате към дадена дейност, отваря виртуалния работен плот, използван последно с тази дейност",
        "Description[ca@valencia]": "En canviar a una activitat, obri l'últim escriptori virtual utilitzat amb esta activitat",
        "Description[ca]": "En canviar a una activitat, obre el darrer escriptori virtual utilitzat amb aquesta activitat",
        "Description[cs]": "Při přepínání na aktivitu otevře virtuální pracovní plochu naposledy s touto aktivitou použitou",
        "Description[da]": "Åbner det senest brugte virtuelle skrivebord for aktiviteten ved skift til en aktivitet",
        "Description[de]": "Beim Wechseln zu einer Aktivität wird die virtuelle Arbeitsfläche geöffnet, auf der zuletzt diese Aktivität benutzt wurde",
        "Description[el]": "Όταν γίνεται εναλλαγή δραστηριότητας, ανοίγει την εικονική επιφάνεια εργασίας που χρησιμοποιήθηκε τελευταία με τη δραστηριότητα αυτή",
        "Description[en_GB]": "When switching to an activity, opens the virtual desktop last used with that activity",
        "Description[es]": "Al cambiar a una actividad, abre el último escritorio virtual que se usó en ella",
        "Description[et]": "Avab tegevuse vahetamisel uues tegevuses viimati kasutatud virtuaalse töölaua",
        "Description[eu]": "Jarduera batera aldatzean, irekitzen du jarduera horrekin erabili zen azken alegiazko mahaigaina",
        "Description[fi]": "Aktiviteettia vaihdettaessa avaa sen virtuaalityöpöydän, jota kyseisellä aktiviteetilla viimeksi käytettiin",
        "Description[fr]": "Lors du changement vers une activité, ouvre le bureau virtuel utilisé en dernier avec cette activité",
        "Description[gl]": "Cando se cambia de actividade abre o último escritorio virtual usado con esa actividade.",
        "Description[hi]": "किसी गतिविधि पर बदलते समय, उस गतिविधि के साथ अंतिम बार उपयोग किया गया आभासी डेस्कटॉप खोलता है",
        "Description[hu]": "Aktivitásra váltáskor megnyitja az aktivitással utoljára használt virtuális asztalt",
        "Description[ia]": "Quando on commuta a un activitate, il aperi le ultime scriptorio virtual usate con celle activitate",
        "Description[id]": "Ketika mengalihkan ke sebuah aktivitas, membukakan desktop virtual yang terakhir digunakan dengan aktivitasnya",
        "Description[it]": "Quando si passa ad un'attività, apre l'ultimo desktop virtuale usato con quella attività",
        "Description[ka]": "აქტივობის გადართვისას ამ აქტივობის შესრულების ბოლო სამუშაო მაგიდის გახსნა",
        "Description[ko]": "활동으로 전환할 때 해당 활동에서 마지막으로 사용한 가상 바탕 화면 열기",
        "Description[lt]": "Perjungiant į veiklą, atveria su ta veikla paskiausiai naudotą virtualų darbalaukį",
        "Description[nl]": "Bij het omschakelen naar een activiteit, opent het virtuele bureaublad dat het laatst werd gebruikt met die activiteit",
        "Description[nn]": "Ved byte av aktivitet vert det siste brukte virtuelle skrivebordet opna",
        "Description[pl]": "Po przełączeniu do działania, otwiera wirtualny pulpit ostatnio używany do tego działania",
        "Description[pt]": "Ao mudar para uma actividade, abre o último ecrã virtual usado por essa actividade",
        "Description[pt_BR]": "Ao trocar para uma atividade, abre a última área de trabalho virtual usada com esta atividade",
        "Description[ro]": "La comutarea la o activitate, deschide biroul virtual folosit ultima dată cu acea activitate",
        "Description[ru]": "При переключении на комнату открывает виртуальный рабочий стол, бывший активным в ней в последний раз",
        "Description[sk]": "Pri prepnutí na aktivitu, otvorí virtuálnu plochu naposledy použitú s danou aktivitou.",
        "Description[sl]": "Ob preklopu na dejavnost odpre navidezno namizje, ki je bilo nazadnje uporabljeno s to dejavnostjo",
        "Description[sr@ijekavian]": "При пребацивању на активност, отвара виртуелну површ која је последња коришћена у тој активности",
        "Description[sr@ijekavianlatin]": "Pri prebacivanju na aktivnost, otvara virtuelnu površ koja je poslednja korišćena u toj aktivnosti",
        "Description[sr@latin]": "Pri prebacivanju na aktivnost, otvara virtuelnu površ koja je poslednja korišćena u toj aktivnosti",
        "Description[sr]": "При пребацивању на активност, отвара виртуелну површ која је последња коришћена у тој активности",
        "Description[sv]": "Vid byte till en aktivitet, öppnar det virtuella skrivbord som senast användes med den aktiviteten",
        "Description[tr]": "Bir etkinliğe geçiş yaparken, bu etkinlikle son kullanılan sanal masaüstünü açar",
        "Description[uk]": "Під час перемикання на простір дій відкриває віртуальну стільницю, яку було використано у цьому просторі останньою",
        "Description[vi]": "Khi chuyển sang một Hoạt động, mở bàn làm việc ảo được dùng gần đây nhất với Hoạt động đó",
        "Description[x-test]": "xxWhen switching to an activity, opens the virtual desktop last used with that activityxx",
        "Description[zh_CN]": "切换活动时打开最后使用的虚拟桌面",
        "Description[zh_TW]": "切換到某個活動時，開啟上次使用的虛擬桌面",
        "EnabledByDefault": false,
        "Icon": "preferences-system-windows",
        "Id": "org.kde.ActivityManager.VirtualDesktopSwitch",
        "License": "GPL",
        "Name": "Virtual desktop switcher",
        "Name[ar]": "مبدل سطح المكتب الافتراضي",
        "Name[az]": "Virtual İş masası çeviricisi",
        "Name[bg]": "Виртуален превключвател на работен плот",
        "Name[ca@valencia]": "Commutador pels escriptoris virtuals",
        "Name[ca]": "Commutador pels escriptoris virtuals",
        "Name[cs]": "Přepínač virtuálních ploch",
        "Name[da]": "Skift mellem virtuelle skriveborde",
        "Name[de]": "Umschalten virtueller Arbeitsflächen",
        "Name[el]": "Εφαρμογή εναλλαγής εικονικής επιφάνειας εργασίας",
        "Name[en_GB]": "Virtual desktop switcher",
        "Name[es]": "Selector de escritorio virtual",
        "Name[et]": "Virtuaalsete töölaudade vahetaja",
        "Name[eu]": "Alegiazko mahaigain aldatzailea",
        "Name[fi]": "Virtuaalityöpöydän valitsin",
        "Name[fr]": "Changement de bureau virtuel",
        "Name[gl]": "Selector de escritorio virtual",
        "Name[hi]": "आभासी डेस्कटॉप बदलने वाला",
        "Name[hu]": "Virtuálisasztal-váltó",
        "Name[ia]": "Commutator de scriptorio virtual",
        "Name[id]": "Pengalih desktop virtual",
        "Name[it]": "Cambiadesktop virtuale",
        "Name[ka]": "ვირტუალური სამუშაო მაგიდის გადამრთველი",
        "Name[ko]": "가상 바탕 화면 전환기",
        "Name[lt]": "Virtualių darbalaukių perjungiklis",
        "Name[nl]": "Virtueel bureaublad omschakelaar",
        "Name[nn]": "Byte mellom virtuelle skrivebord",
        "Name[pl]": "Przełącznik wirtualnych pulpitów",
        "Name[pt]": "Mudança de ecrã virtual",
        "Name[pt_BR]": "Seletor de áreas de trabalho virtuais",
        "Name[ro]": "Comutator de birouri virtuale",
        "Name[ru]": "Переключатель виртуальных рабочих столов",
        "Name[sk]": "Prepínač virtuálnych plôch",
        "Name[sl]": "Preklapljanje navideznih namizij",
        "Name[sr@ijekavian]": "Мењач виртуелних површи",
        "Name[sr@ijekavianlatin]": "Menjač virtuelnih površi",
        "Name[sr@latin]": "Menjač virtuelnih površi",
        "Name[sr]": "Мењач виртуелних површи",
        "Name[sv]": "Byte av virtuellt skrivbord",
        "Name[tr]": "Sanal masaüstü geçişi",
        "Name[uk]": "Перемикач віртуальних стільниць",
        "Name[vi]": "Trình chuyển bàn làm việc ảo",
        "Name[x-test]": "xxVirtual desktop switcherxx",
        "Name[zh_CN]": "虚拟桌面切换器",
        "Name[zh_TW]": "虛擬桌面切換器",
        "Version": "1.0",
        "Website": "https://kde.org/plasma-desktop"
    }
}
